-------------------------------------------------------------------------------
Test set: BibliotecaApp.repository.repoMock.CartiRepoMockTest
-------------------------------------------------------------------------------
Tests run: 3, Failures: 0, Errors: 0, Skipped: 0, Time elapsed: 0 sec
